{

    "data": [

        {

            "brandName": "Organização A",

            "companyCnpj": "21128159000166",

            "investmentId": "9279212601992921200000000000000000000001",

            "investmentType": "CDB"

        },

        {

            "brandName": "Organização A",

            "companyCnpj": "21128159000166",

            "investmentId": "9279212601992921200000000000000000000002",

            "investmentType": "CDB"

        },

        {

            "brandName": "Organização A",

            "companyCnpj": "21128159000166",

            "investmentId": "9279212601992921200000000000000000000003",

            "investmentType": "CDB"

        },

        {

            "brandName": "Organização A",

            "companyCnpj": "21128159000166",

            "investmentId": "9279212601992921200000000000000000000004",

            "investmentType": "CDB"

        },

        {

            "brandName": "Organização A",

            "companyCnpj": "21128159000166",

            "investmentId": "9279212601992921200000000000000000000005",

            "investmentType": "CDB"

        },

        {

            "brandName": "Organização A",

            "companyCnpj": "21128159000166",

            "investmentId": "9279212601992921200000000000000000000006",

            "investmentType": "CDB"

        },

        {

            "brandName": "Organização A",

            "companyCnpj": "21128159000166",

            "investmentId": "9279212601992921200000000000000000000007",

            "investmentType": "CDB"

        },

        {

            "brandName": "Organização A",

            "companyCnpj": "21128159000166",

            "investmentId": "9279212601992921200000000000000000000008",

            "investmentType": "CDB"

        },

        {

            "brandName": "Organização A",

            "companyCnpj": "21128159000166",

            "investmentId": "9279212601992921200000000000000000000009",

            "investmentType": "CDB"

        },

        {

            "brandName": "Organização A",

            "companyCnpj": "21128159000166",

            "investmentId": "9279212601992921200000000000000000000010",

            "investmentType": "CDB"

        },

        {

            "brandName": "Organização A",

            "companyCnpj": "21128159000166",

            "investmentId": "9279212601992921200000000000000000000011",

            "investmentType": "CDB"

        },

        {

            "brandName": "Organização A",

            "companyCnpj": "21128159000166",

            "investmentId": "9279212601992921200000000000000000000012",

            "investmentType": "CDB"

        },

        {

            "brandName": "Organização A",

            "companyCnpj": "21128159000166",

            "investmentId": "9279212601992921200000000000000000000013",

            "investmentType": "CDB"

        },

        {

            "brandName": "Organização A",

            "companyCnpj": "21128159000166",

            "investmentId": "9279212601992921200000000000000000000014",

            "investmentType": "CDB"

        },

        {

            "brandName": "Organização A",

            "companyCnpj": "21128159000166",

            "investmentId": "9279212601992921200000000000000000000015",

            "investmentType": "CDB"

        },

        {

            "brandName": "Organização A",

            "companyCnpj": "21128159000166",

            "investmentId": "9279212601992921200000000000000000000016",

            "investmentType": "CDB"

        },

        {

            "brandName": "Organização A",

            "companyCnpj": "21128159000166",

            "investmentId": "9279212601992921200000000000000000000017",

            "investmentType": "CDB"

        },

        {

            "brandName": "Organização A",

            "companyCnpj": "21128159000166",

            "investmentId": "9279212601992921200000000000000000000018",

            "investmentType": "CDB"

        },

        {

            "brandName": "Organização A",

            "companyCnpj": "21128159000166",

            "investmentId": "9279212601992921200000000000000000000019",

            "investmentType": "CDB"

        },

        {

            "brandName": "Organização A",

            "companyCnpj": "21128159000166",

            "investmentId": "9279212601992921200000000000000000000020",

            "investmentType": "CDB"

        },

        {

            "brandName": "Organização A",

            "companyCnpj": "21128159000166",

            "investmentId": "9279212601992921200000000000000000000021",

            "investmentType": "CDB"

        },

        {

            "brandName": "Organização A",

            "companyCnpj": "21128159000166",

            "investmentId": "9279212601992921200000000000000000000022",

            "investmentType": "CDB"

        },

        {

            "brandName": "Organização A",

            "companyCnpj": "21128159000166",

            "investmentId": "9279212601992921200000000000000000000023",

            "investmentType": "CDB"

        },

        {

            "brandName": "Organização A",

            "companyCnpj": "21128159000166",

            "investmentId": "9279212601992921200000000000000000000024",

            "investmentType": "CDB"

        },

        {

            "brandName": "Organização A",

            "companyCnpj": "21128159000166",

            "investmentId": "9279212601992921200000000000000000000025",

            "investmentType": "CDB"

        }

    ],

    "links": {

        "self": "https:// xpto.azure.br/open-banking/intranet/bank-fixed-incomes/v1/investments?page=1&page-size=25",

        "next": "https:// xpto.azure.br/open-banking/intranet/bank-fixed-incomes/v1/investments?page-size=25&page=2",

        "last": "https://xpto.azure.br/open-banking/intranet/bank-fixed-incomes/v1/investments?page-size=25&page=2"

    },

    "meta": {

        "totalRecords": 30,

        "totalPages": 2,

        "requestDateTime": "2024-06-05T17:23:58Z"

    }

}